…
mean GDP:

library(modelr)
mor_mod <- glm(default_time ~ gdp_mean, data = mortgage_all, family = binomial)
(beta <- coef(mor_mod))

## (Intercept)    gdp_mean 
##   1.0324845  -0.8995499

library(modelr)
(grid <- mortgage_all %>% data_grid(gdp_mean) %>%
 add_predictions(mor_mod, type = "response"))

## # A tibble: 1,447 x 2
##    gdp_mean  pred
##       <dbl> <dbl>
##  1    -3.83 0.989
##  2    -3.74 0.988
##  3    -3.67 0.987
##  4    -3.52 0.985
##  5    -3.16 0.980
##  6    -2.82 0.973
##  7    -2.81 0.972
##  8    -2.70 0.969
##  9    -2.58 0.966
## 10    -2.39 0.960
## # … with 1,437 more rows
…
Original House Price Index:

mor_mod1 <- glm(default_time ~ hpi_orig_time, data = mortgage_all, family = binomial)
(beta <- coef(mor_mod1))

##   (Intercept) hpi_orig_time 
##   -5.41944535    0.02425822

library(modelr)
(grid <- mortgage_all %>% data_grid(hpi_orig_time) %>%
 add_predictions(mor_mod1, type = "response"))

## # A tibble: 87 x 2
##    hpi_orig_time   pred
##            <dbl>  <dbl>
##  1          75.7 0.0270
##  2          75.7 0.0271
##  3          75.9 0.0272
##  4          76.4 0.0275
##  5          76.5 0.0275
##  6          76.5 0.0275
##  7          76.7 0.0277
##  8          76.9 0.0278
##  9          77.0 0.0279
## 10          77   0.0279
## # … with 77 more rows
…
For time varible, I will keep only origin time of the dataset:

mor_mod2 <- glm(default_time ~ orig_time, data = mortgage_all, family = binomial)
(beta <- coef(mor_mod2))

## (Intercept)   orig_time 
##  -3.1697610   0.1243071

library(modelr)
(grid <- mortgage_all %>% data_grid(orig_time) %>%
 add_predictions(mor_mod2, type = "response"))

## # A tibble: 88 x 2
##    orig_time     pred
##        <dbl>    <dbl>
##  1       -40 0.000291
##  2       -39 0.000329
##  3       -37 0.000422
##  4       -36 0.000478
##  5       -33 0.000694
##  6       -30 0.00101 
##  7       -29 0.00114 
##  8       -28 0.00129 
##  9       -26 0.00166 
## 10       -25 0.00187 
## # … with 78 more rows
…
First time Risk-free rate:

mor_mod4 <- glm(default_time ~ rate_time, data = mortgage_all, family = binomial)
(beta <- coef(mor_mod4))

## (Intercept)   rate_time 
##  -4.2555650   0.8188854

library(modelr)
(grid <- mortgage_all %>% data_grid(rate_time) %>%
 add_predictions(mor_mod4, type = "response"))

## # A tibble: 81 x 2
##    rate_time   pred
##        <dbl>  <dbl>
##  1      1.65 0.0519
##  2      1.67 0.0527
##  3      1.78 0.0574
##  4      1.87 0.0616
##  5      1.89 0.0625
##  6      1.92 0.0640
##  7      1.94 0.0650
##  8      2.17 0.0774
##  9      2.23 0.0810
## 10      2.52 0.100 
## # … with 71 more rows
…
Unemployment Rate:

mor_mod5 <- glm(default_time ~ uer_mean, data = mortgage_all, family = binomial)
(beta <- coef(mor_mod5))

## (Intercept)    uer_mean 
##  -2.5602844   0.3632487

library(modelr)
(grid <- mortgage_all %>% data_grid(uer_mean) %>%
 add_predictions(mor_mod5, type = "response"))

## # A tibble: 1,113 x 2
##    uer_mean  pred
##       <dbl> <dbl>
##  1     3.8  0.235
##  2     3.9  0.242
##  3     3.95 0.245
##  4     3.98 0.247
##  5     4    0.248
##  6     4.03 0.251
##  7     4.05 0.252
##  8     4.06 0.252
##  9     4.12 0.257
## 10     4.15 0.259
## # … with 1,103 more rows
…
Mean Interest Rate:

mor_mod6 <- glm(default_time ~ interest_rate_mean, data = mortgage_all, family = binomial)
(beta <- coef(mor_mod6))

##        (Intercept) interest_rate_mean 
##         -1.9736370          0.1906897

library(modelr)
(grid <- mortgage_all %>% data_grid(interest_rate_mean) %>%
 add_predictions(mor_mod6, type = "response"))

## # A tibble: 7,527 x 2
##    interest_rate_mean  pred
##                 <dbl> <dbl>
##  1               1.12 0.147
##  2               1.72 0.162
##  3               1.75 0.162
##  4               1.99 0.169
##  5               1.99 0.169
##  6               2.00 0.169
##  7               2    0.169
##  8               2.00 0.169
##  9               2.01 0.169
## 10               2.02 0.170
## # … with 7,517 more rows
…
Time to Maturity:

mor_mod7 <- glm(default_time ~ TTM, data = mortgage_all, family = binomial)
(beta <- coef(mor_mod7))

## (Intercept)         TTM 
## -3.22550171  0.02253902

library(modelr)
(grid <- mortgage_all %>% data_grid(TTM) %>%
 add_predictions(mor_mod7, type = "response"))

## # A tibble: 146 x 2
##      TTM   pred
##    <dbl>  <dbl>
##  1     5 0.0426
##  2     9 0.0464
##  3    10 0.0474
##  4    11 0.0484
##  5    13 0.0506
##  6    14 0.0517
##  7    15 0.0528
##  8    16 0.0539
##  9    17 0.0551
## 10    18 0.0563
## # … with 136 more rows
…
FICO score(credit score):

mor_mod8 <- glm(default_time ~ FICO_orig_time, data = mortgage_all, family = binomial)
(beta <- coef(mor_mod8))

##    (Intercept) FICO_orig_time 
##    1.497799187   -0.003128735

library(modelr)
(grid <- mortgage_all %>% data_grid(FICO_orig_time) %>%
 add_predictions(mor_mod8, type = "response"))

## # A tibble: 389 x 2
##    FICO_orig_time  pred
##             <dbl> <dbl>
##  1            400 0.561
##  2            406 0.557
##  3            413 0.551
##  4            420 0.546
##  5            428 0.540
##  6            429 0.539
##  7            433 0.536
##  8            439 0.531
##  9            441 0.529
## 10            442 0.529
## # … with 379 more rows
…
Loan to Value ratio:

mor_mod9 <- glm(default_time ~ LTV_orig_time, data = mortgage_all, family = binomial)
(beta <- coef(mor_mod9))

##   (Intercept) LTV_orig_time 
##   -2.09611716    0.01917789

library(modelr)
(grid <- mortgage_all %>% data_grid(LTV_orig_time) %>%
 add_predictions(mor_mod9, type = "response"))

## # A tibble: 538 x 2
##    LTV_orig_time  pred
##            <dbl> <dbl>
##  1          50.1 0.243
##  2          50.2 0.244
##  3          50.3 0.244
##  4          50.4 0.244
##  5          50.5 0.245
##  6          50.6 0.245
##  7          50.7 0.245
##  8          50.8 0.246
##  9          50.9 0.246
## 10          51   0.246
## # … with 528 more rows
…
age of a mortgage:

mor_mod10 <- glm(default_time ~ age, data = mortgage_all, family = binomial)
(beta <- coef(mor_mod10))

## (Intercept)         age 
## -0.49817484 -0.01776127

library(modelr)
(grid <- mortgage_all %>% data_grid(age) %>%
 add_predictions(mor_mod10, type = "response"))

## # A tibble: 66 x 2
##      age  pred
##    <dbl> <dbl>
##  1     0 0.378
##  2     1 0.374
##  3     2 0.370
##  4     3 0.366
##  5     4 0.361
##  6     5 0.357
##  7     6 0.353
##  8     7 0.349
##  9     8 0.345
## 10     9 0.341
## # … with 56 more rows
…
Pattern:

Value of the house:

mor_mod12 <- glm(default_time ~ balance_orig_time, data = mortgage_all, family = binomial)
(beta <- coef(mor_mod12))

##       (Intercept) balance_orig_time 
##     -5.567810e-01     -1.075221e-08

library(modelr)
(grid <- mortgage_all %>% data_grid(balance_orig_time) %>%
 add_predictions(mor_mod12, type = "response"))

## # A tibble: 9,409 x 2
##    balance_orig_time  pred
##                <dbl> <dbl>
##  1                0  0.364
##  2             6246  0.364
##  3             9575  0.364
##  4            10000  0.364
##  5            10465. 0.364
##  6            11100  0.364
##  7            11400  0.364
##  8            11845. 0.364
##  9            12000  0.364
## 10            12008  0.364
## # … with 9,399 more rows
…
