…
## Warning: The following named parsers don't match the column names:
## iREtype_PU_orig_time

mortgage

## # A tibble: 622,489 x 28
##       id  time orig_time first_time mat_time res_time balance_time LTV_time
##    <dbl> <dbl>     <dbl>      <dbl>    <dbl>    <dbl>        <dbl>    <dbl>
##  1     1    25        -7         25      113       NA       41303.     24.5
##  2     1    26        -7         25      113       NA       41062.     24.5
##  3     1    27        -7         25      113       NA       40804.     24.6
##  4     1    28        -7         25      113       NA       40484.     24.7
##  5     1    29        -7         25      113       NA       40367.     24.9
##  6     1    30        -7         25      113       NA       40128.     25.3
##  7     1    31        -7         25      113       NA       39719.     26.6
##  8     1    32        -7         25      113       NA       35877.     25.9
##  9     1    33        -7         25      113       NA       34410.     25.6
## 10     1    34        -7         25      113       NA       33590.     26.0
## # … with 622,479 more rows, and 20 more variables: interest_rate_time <dbl>,
## #   rate_time <dbl>, hpi_time <dbl>, gdp_time <dbl>, uer_time <dbl>,
## #   REtype_CO_orig_time <dbl>, REtype_PU_orig_time <dbl>,
## #   REtype_SF_orig_time <dbl>, investor_orig_time <dbl>,
## #   balance_orig_time <dbl>, FICO_orig_time <dbl>, LTV_orig_time <dbl>,
## #   Interest_Rate_orig_time <dbl>, state_orig_time <chr>, hpi_orig_time <dbl>,
## #   default_time <dbl>, payoff_time <dbl>, status_time <chr>, lgd_time <dbl>,
## #   recovery_res <dbl>

problems()

If you are working with a large data set, you might decide to start with a subset of the data. How did you choose this?

I use a random number generator because I do not want my subset to be biased and stratified.

Discuss any initial steps you are taking to load and clean the data.

Our Idea is to make a logistics regression to see any variable strongly influence people’s choice between payoff and default, so the first step for us to clean the data is to only select those who already reach the deadline (eliminate those have not reached the maturity)
while 2 represents payoff, 1 represents default, what we do is to select only the status_time = 1 or 2

(mortgage <- mortgage %>% filter(status_time > 0))

## # A tibble: 41,747 x 28
##       id  time orig_time first_time mat_time res_time balance_time LTV_time
##    <dbl> <dbl>     <dbl>      <dbl>    <dbl>    <dbl>        <dbl>    <dbl>
##  1     1    48        -7         25      113       50       29087.     26.7
##  2     2    26        18         25      138       NA      105655.     65.5
##  3     3    29        -6         25      114       NA       44379.     31.5
##  4     5    27        18         25      138       NA       52101.     66.3
##  5     6    56        19         25      139       60      190474.     75.8
##  6     7    26        18         25      138       NA      107916.     77.9
##  7     8    25        18         25      138       NA      152393.     58.8
##  8     9    37        18         25      138       NA      130140.     99.1
##  9    10    29        18         25      139       34       88046.     67.3
## 10    11    27        18         25      138       NA      154664.     78.8
## # … with 41,737 more rows, and 20 more variables: interest_rate_time <dbl>,
## #   rate_time <dbl>, hpi_time <dbl>, gdp_time <dbl>, uer_time <dbl>,
## #   REtype_CO_orig_time <dbl>, REtype_PU_orig_time <dbl>,
## #   REtype_SF_orig_time <dbl>, investor_orig_time <dbl>,
## #   balance_orig_time <dbl>, FICO_orig_time <dbl>, LTV_orig_time <dbl>,
## #   Interest_Rate_orig_time <dbl>, state_orig_time <chr>, hpi_orig_time <dbl>,
## #   default_time <dbl>, payoff_time <dbl>, status_time <chr>, lgd_time <dbl>,
## #   recovery_res <dbl>
(mortgage %>% ggplot(aes(x = balance_time)) + geom_histogram())

## `stat_bin()` using `bins = 30`. Pick better value with `binwidth`.

<img src="{{< blogdown/postref >}}index.en_files/figure-html/unnamed-chunk-2-1.png" width="672" />

sqrt_result <- sqrt(var(mortgage$balance_time))
mean_result <-mean(mortgage$balance_time)
(threshold <- mean_result + 2 * sqrt_result)

## [1] 653053.3

(mortgage <- mortgage %>% filter(balance_time < 422225.7))

## # A tibble: 35,612 x 28
##       id  time orig_time first_time mat_time res_time balance_time LTV_time
##    <dbl> <dbl>     <dbl>      <dbl>    <dbl>    <dbl>        <dbl>    <dbl>
##  1     1    48        -7         25      113       50       29087.     26.7
##  2     2    26        18         25      138       NA      105655.     65.5
##  3     3    29        -6         25      114       NA       44379.     31.5
##  4     5    27        18         25      138       NA       52101.     66.3
##  5     6    56        19         25      139       60      190474.     75.8
##  6     7    26        18         25      138       NA      107916.     77.9
##  7     8    25        18         25      138       NA      152393.     58.8
##  8     9    37        18         25      138       NA      130140.     99.1
##  9    10    29        18         25      139       34       88046.     67.3
## 10    11    27        18         25      138       NA      154664.     78.8
## # … with 35,602 more rows, and 20 more variables: interest_rate_time <dbl>,
## #   rate_time <dbl>, hpi_time <dbl>, gdp_time <dbl>, uer_time <dbl>,
## #   REtype_CO_orig_time <dbl>, REtype_PU_orig_time <dbl>,
## #   REtype_SF_orig_time <dbl>, investor_orig_time <dbl>,
## #   balance_orig_time <dbl>, FICO_orig_time <dbl>, LTV_orig_time <dbl>,
## #   Interest_Rate_orig_time <dbl>, state_orig_time <chr>, hpi_orig_time <dbl>,
## #   default_time <dbl>, payoff_time <dbl>, status_time <chr>, lgd_time <dbl>,
## #   recovery_res <dbl>
…
<img src="{{< blogdown/postref >}}index.en_files/figure-html/unnamed-chunk-2-6.png" width="672" />

mortgage %>% ggplot(aes(x = status_time, y = gdp_time)) + geom_boxplot()

<img src="{{< blogdown/postref >}}index.en_files/figure-html/unnamed-chunk-2-7.png" width="672" />

mortgage %>% ggplot(aes(x = status_time, y = uer_time)) + geom_boxplot()

<img src="{{< blogdown/postref >}}index.en_files/figure-html/unnamed-chunk-2-8.png" width="672" />
# If you are working with a large data set, you might decide to start with a subset of the data. How did you choose this?

mortgage %>% mutate(count = n())%>% mutate(random = runif(count,1.0,10000.0)) %>% filter(random < 1000)

## # A tibble: 3,542 x 30
##       id  time orig_time first_time mat_time res_time balance_time LTV_time
##    <dbl> <dbl>     <dbl>      <dbl>    <dbl>    <dbl>        <dbl>    <dbl>
##  1     2    26        18         25      138       NA      105655.     65.5
##  2     9    37        18         25      138       NA      130140.     99.1
##  3    19    28        19         25      139       30      187753.     68.2
##  4    21    28        18         25      139       NA      197993.     67.9
##  5    29    33        18         25      139       38      177668.     80.0
##  6    32    25        19         25      139       NA      238082.     67.1
##  7    34    26        19         25      139       NA      257601.     67.4
##  8    62    36        25         33      140       NA       68553.    133. 
##  9    68    38        25         33      141       NA       82984.    113. 
## 10    73    41        25         33      140       NA       93837.    109. 
## # … with 3,532 more rows, and 22 more variables: interest_rate_time <dbl>,
## #   rate_time <dbl>, hpi_time <dbl>, gdp_time <dbl>, uer_time <dbl>,
## #   REtype_CO_orig_time <dbl>, REtype_PU_orig_time <dbl>,
## #   REtype_SF_orig_time <dbl>, investor_orig_time <dbl>,
## #   balance_orig_time <dbl>, FICO_orig_time <dbl>, LTV_orig_time <dbl>,
## #   Interest_Rate_orig_time <dbl>, state_orig_time <chr>, hpi_orig_time <dbl>,
## #   default_time <dbl>, payoff_time <dbl>, status_time <chr>, lgd_time <dbl>,
## #   recovery_res <dbl>, count <int>, random <dbl>

mortgage %>% ggplot(aes(id)) + geom_freqpoly()

## `stat_bin()` using `bins = 30`. Pick better value with `binwidth`.

<img src="{{< blogdown/postref >}}index.en_files/figure-html/q3-1.png" width="672" />

mortgage %>% count(time)

## # A tibble: 60 x 2
##     time     n
##    <dbl> <int>
##  1     1    22
##  2     2    37
##  3     3    57
##  4     4    56
##  5     5    65
##  6     6    95
##  7     7    80
##  8     8    72
##  9     9    97
## 10    10    74
## # … with 50 more rows

mortgage %>% count(orig_time)

## # A tibble: 72 x 2
##    orig_time     n
##        <dbl> <int>
##  1       -40    43
##  2       -39     3
##  3       -37     2
##  4       -36     1
##  5       -33     2
##  6       -30     3
##  7       -29     3
##  8       -28     2
##  9       -26     3
## 10       -25     2
## # … with 62 more rows

mortgage %>% count(first_time)

## # A tibble: 41 x 2
##    first_time     n
##         <dbl> <int>
##  1          1   276
##  2          2   267
##  3          3   387
##  4          4    16
##  5          5    24
##  6          6   102
##  7          9   135
##  8         10    71
##  9         11   175
## 10         12   313
## # … with 31 more rows

mortgage %>% count(mat_time)

## # A tibble: 175 x 2
##    mat_time     n
##       <dbl> <int>
##  1       23     1
##  2       26     1
##  3       27     1
##  4       28     1
##  5       29     4
##  6       30     1
##  7       31     3
##  8       32     4
##  9       33     2
## 10       34     3
## # … with 165 more rows

mortgage %>% count(res_time)

## # A tibble: 58 x 2
##    res_time     n
##       <dbl> <int>
##  1        4     3
##  2        5     2
##  3        6     5
##  4        7     7
##  5        8     4
##  6        9    11
##  7       10     9
##  8       11    11
##  9       12    16
## 10       13    14
## # … with 48 more rows
…
## # A tibble: 0 x 28
## # … with 28 variables: id <dbl>, time <dbl>, orig_time <dbl>, first_time <dbl>,
## #   mat_time <dbl>, res_time <dbl>, balance_time <dbl>, LTV_time <dbl>,
## #   interest_rate_time <dbl>, rate_time <dbl>, hpi_time <dbl>, gdp_time <dbl>,
## #   uer_time <dbl>, REtype_CO_orig_time <dbl>, REtype_PU_orig_time <dbl>,
## #   REtype_SF_orig_time <dbl>, investor_orig_time <dbl>,
## #   balance_orig_time <dbl>, FICO_orig_time <dbl>, LTV_orig_time <dbl>,
## #   Interest_Rate_orig_time <dbl>, state_orig_time <chr>, hpi_orig_time <dbl>,
## #   default_time <dbl>, payoff_time <dbl>, status_time <chr>, lgd_time <dbl>,
## #   recovery_res <dbl>

mortgage %>% count(LTV_time)

## # A tibble: 32,926 x 2
##    LTV_time     n
##       <dbl> <int>
##  1   0        285
##  2   0.0430     1
##  3   0.0462     1
##  4   0.0554     1
##  5   0.0939     1
##  6   0.112      1
##  7   0.133      1
##  8   0.143      1
##  9   0.148      1
## 10   0.169      1
## # … with 32,916 more rows

mortgage %>% ggplot(aes(LTV_time)) + geom_histogram()

## `stat_bin()` using `bins = 30`. Pick better value with `binwidth`.

## Warning: Removed 12 rows containing non-finite values (stat_bin).

<img src="{{< blogdown/postref >}}index.en_files/figure-html/q3-3.png" width="672" />

mortgage %>% count(LTV_time, balance_time)

## # A tibble: 35,263 x 3
##    LTV_time balance_time     n
##       <dbl>        <dbl> <int>
##  1   0               0     285
##  2   0.0430        351.      1
##  3   0.0462         24.9     1
##  4   0.0554        455.      1
##  5   0.0939        262.      1
##  6   0.112         530.      1
##  7   0.133        1271.      1
##  8   0.143         673.      1
##  9   0.148         229       1
## 10   0.169        1508.      1
## # … with 35,253 more rows
…
mortgage %>% count(status_time)

## # A tibble: 2 x 2
##   status_time     n
##   <chr>       <int>
## 1 1           12787
## 2 2           22825

mortgage %>% count(state_orig_time)

## # A tibble: 54 x 2
##    state_orig_time     n
##    <chr>           <int>
##  1 AK                 23
##  2 AL                223
##  3 AR                110
##  4 AZ               1533
##  5 CA               6554
##  6 CO                828
##  7 CT                381
##  8 DC                 87
##  9 DE                 88
## 10 FL               3981
## # … with 44 more rows
…
In US history, it is rare to see negative GDP growth. Therefore we check from the website and found out that the only peroid is US history with around -4.11% GDP growth, which is in the first quarter in 2009. After that, we compare other time and GDP growth, found out that the whole dataset is separated into 60 quaters from 2000 Q1 to 2014 Q4. Therefore, we can add the exact timeback to our dataset:

date_seq<-seq(as.Date("2000/03/31"), by = "quarter", length.out = 60)
date_dataframe<-data.frame(date_seq)
date_dataframe<- date_dataframe%>%separate(date_seq,into=c('year','month','day'),sep='-')
date_dataframe$quater=1
date_dataframe$quater[date_dataframe$month=='07']<-2
date_dataframe$quater[date_dataframe$month=='10']<-3
date_dataframe$quater[date_dataframe$month=='12']<-4
date_dataframe$time<-seq(1,60,1)
mortgage2 <- mortage1 %>% left_join(date_dataframe, by = "time")
mortgage2

## # A tibble: 35,449 x 32
##       id  time orig_time first_time mat_time res_time balance_time LTV_time
##    <dbl> <dbl>     <dbl>      <dbl>    <dbl>    <dbl>        <dbl>    <dbl>
##  1     1    48        -7         25      113       50       29087.     26.7
##  2     2    26        18         25      138       NA      105655.     65.5
##  3     3    29        -6         25      114       NA       44379.     31.5
##  4     5    27        18         25      138       NA       52101.     66.3
##  5     6    56        19         25      139       60      190474.     75.8
##  6     7    26        18         25      138       NA      107916.     77.9
##  7     8    25        18         25      138       NA      152393.     58.8
##  8     9    37        18         25      138       NA      130140.     99.1
##  9    10    29        18         25      139       34       88046.     67.3
## 10    11    27        18         25      138       NA      154664.     78.8
## # … with 35,439 more rows, and 24 more variables: interest_rate_time <dbl>,
## #   rate_time <dbl>, hpi_time <dbl>, gdp_time <dbl>, uer_time <dbl>,
## #   REtype_CO_orig_time <dbl>, REtype_PU_orig_time <dbl>,
## #   REtype_SF_orig_time <dbl>, investor_orig_time <dbl>,
## #   balance_orig_time <dbl>, FICO_orig_time <dbl>, LTV_orig_time <dbl>,
## #   Interest_Rate_orig_time <dbl>, state_orig_time <chr>, hpi_orig_time <dbl>,
## #   default_time <dbl>, payoff_time <dbl>, status_time <chr>, lgd_time <dbl>,
## #   recovery_res <dbl>, year <chr>, month <chr>, day <chr>, quater <dbl>

After loading and cleaning, mortgage2 is the dataset we are working on.

(mortgage3 <- mortgage2 %>% filter(status_time > 0))

## # A tibble: 35,449 x 32
##       id  time orig_time first_time mat_time res_time balance_time LTV_time
##    <dbl> <dbl>     <dbl>      <dbl>    <dbl>    <dbl>        <dbl>    <dbl>
##  1     1    48        -7         25      113       50       29087.     26.7
##  2     2    26        18         25      138       NA      105655.     65.5
##  3     3    29        -6         25      114       NA       44379.     31.5
##  4     5    27        18         25      138       NA       52101.     66.3
##  5     6    56        19         25      139       60      190474.     75.8
##  6     7    26        18         25      138       NA      107916.     77.9
##  7     8    25        18         25      138       NA      152393.     58.8
##  8     9    37        18         25      138       NA      130140.     99.1
##  9    10    29        18         25      139       34       88046.     67.3
## 10    11    27        18         25      138       NA      154664.     78.8
## # … with 35,439 more rows, and 24 more variables: interest_rate_time <dbl>,
## #   rate_time <dbl>, hpi_time <dbl>, gdp_time <dbl>, uer_time <dbl>,
## #   REtype_CO_orig_time <dbl>, REtype_PU_orig_time <dbl>,
## #   REtype_SF_orig_time <dbl>, investor_orig_time <dbl>,
## #   balance_orig_time <dbl>, FICO_orig_time <dbl>, LTV_orig_time <dbl>,
## #   Interest_Rate_orig_time <dbl>, state_orig_time <chr>, hpi_orig_time <dbl>,
## #   default_time <dbl>, payoff_time <dbl>, status_time <chr>, lgd_time <dbl>,
## #   recovery_res <dbl>, year <chr>, month <chr>, day <chr>, quater <dbl>
mortgage2 %>% ggplot(aes(x = balance_time)) + geom_histogram(binwidth = 10000)

<img src="{{< blogdown/postref >}}index.en_files/figure-html/q6-1.png" width="672" />

These are patterns we found:

sqrt_result <- sqrt(var(mortgage$balance_time))
mean_result <-mean(mortgage$balance_time)
(threshold <- mean_result + 2 * sqrt_result)

## [1] 387104.2

(mortgage <- mortgage %>% filter(balance_time < 422225.7))

## # A tibble: 35,612 x 28
##       id  time orig_time first_time mat_time res_time balance_time LTV_time
##    <dbl> <dbl>     <dbl>      <dbl>    <dbl>    <dbl>        <dbl>    <dbl>
##  1     1    48        -7         25      113       50       29087.     26.7
##  2     2    26        18         25      138       NA      105655.     65.5
##  3     3    29        -6         25      114       NA       44379.     31.5
##  4     5    27        18         25      138       NA       52101.     66.3
##  5     6    56        19         25      139       60      190474.     75.8
##  6     7    26        18         25      138       NA      107916.     77.9
##  7     8    25        18         25      138       NA      152393.     58.8
##  8     9    37        18         25      138       NA      130140.     99.1
##  9    10    29        18         25      139       34       88046.     67.3
## 10    11    27        18         25      138       NA      154664.     78.8
## # … with 35,602 more rows, and 20 more variables: interest_rate_time <dbl>,
## #   rate_time <dbl>, hpi_time <dbl>, gdp_time <dbl>, uer_time <dbl>,
## #   REtype_CO_orig_time <dbl>, REtype_PU_orig_time <dbl>,
## #   REtype_SF_orig_time <dbl>, investor_orig_time <dbl>,
## #   balance_orig_time <dbl>, FICO_orig_time <dbl>, LTV_orig_time <dbl>,
## #   Interest_Rate_orig_time <dbl>, state_orig_time <chr>, hpi_orig_time <dbl>,
## #   default_time <dbl>, payoff_time <dbl>, status_time <chr>, lgd_time <dbl>,
## #   recovery_res <dbl>
…
