…
We carefully explored multiple variables which are associated with default status, and we will further talk about three of them: mean GDP, mean interest rate, and unemployment rate.

library(modelr)
mor_mod <- glm(default_time ~ gdp_mean, data = mortgage_all, family = binomial)
(beta <- coef(mor_mod))

## (Intercept)    gdp_mean 
##   0.5131527  -0.8144658

library(modelr)
(grid <- mortgage_all %>% data_grid(gdp_mean) %>%
 add_predictions(mor_mod, type = "response"))

## # A tibble: 1,520 x 2
##    gdp_mean  pred
##       <dbl> <dbl>
##  1    -3.83 0.974
##  2    -3.74 0.972
##  3    -3.67 0.971
##  4    -3.52 0.967
##  5    -3.16 0.956
##  6    -2.82 0.943
##  7    -2.81 0.943
##  8    -2.70 0.938
##  9    -2.58 0.932
## 10    -2.39 0.922
## # … with 1,510 more rows
…
<img src="{{< blogdown/postref >}}index.en_files/figure-html/q10-1.png" width="672" />
One of the biggest factors that affect default rate is GDP. As we can see from the plot above, when mean GDP increases, the default rate shows a decrease pattern: the higher the GDP, the lower the default rate. This met our expectation because GDP is the most used measure of a country’s standard of living and general economic health. If GDP goes high, meaning citizens’ average living standard is in a high level, and fewer of them will be in a default status.

mor_mod6 <- glm(default_time ~ interest_rate_mean, data = mortgage_all, family = binomial)
(beta <- coef(mor_mod6))

##        (Intercept) interest_rate_mean 
##         -2.6414523          0.2484366

library(modelr)
(grid <- mortgage_all %>% data_grid(interest_rate_mean) %>%
 add_predictions(mor_mod6, type = "response"))

## # A tibble: 10,794 x 2
##    interest_rate_mean   pred
##                 <dbl>  <dbl>
##  1              0     0.0665
##  2              0.417 0.0732
##  3              1.12  0.0861
##  4              1.38  0.0911
##  5              1.44  0.0924
##  6              1.69  0.0978
##  7              1.72  0.0985
##  8              1.75  0.0992
##  9              1.81  0.101 
## 10              1.94  0.103 
## # … with 10,784 more rows
…
<img src="{{< blogdown/postref >}}index.en_files/figure-html/q15-1.png" width="672" />
The default rate, also called penalty rate, may refer to the higher interest rate imposed on a borrower who has missed regular payments on a loan. As the above plot shows, the default rate increases dramatically as the average interest rate of all observation periods increases, and default rate tends to be flat from 20 to roughly 37.

mor_mod5 <- glm(default_time ~ uer_mean, data = mortgage_all, family = binomial)
(beta <- coef(mor_mod5))

## (Intercept)    uer_mean 
## -0.65769799 -0.03024321

library(modelr)
(grid <- mortgage_all %>% data_grid(uer_mean) %>%
 add_predictions(mor_mod5, type = "response"))

## # A tibble: 1,168 x 2
##    uer_mean  pred
##       <dbl> <dbl>
##  1     3.8  0.316
##  2     3.9  0.315
##  3     3.95 0.315
##  4     3.98 0.315
##  5     4    0.315
##  6     4.03 0.314
##  7     4.05 0.314
##  8     4.06 0.314
##  9     4.12 0.314
## 10     4.15 0.314
## # … with 1,158 more rows
…
